^C:\USERS\ANDYWANG\DOCUMENTS\VISUAL STUDIO 2015\PROJECTS\PIC10CASSIGNMENT1\PIC10CASSIGNMENT1\MAIN.CPP
/c /ZI /nologo /W3 /WX- /sdl /Od /Oy- /D _MBCS /Gm /EHsc /RTC1 /MDd /GS /fp:precise /Zc:wchar_t /Zc:forScope /Zc:inline /Fo"DEBUG\\" /Fd"DEBUG\VC140.PDB" /Gd /TP /analyze- C:\USERS\ANDYWANG\DOCUMENTS\VISUAL STUDIO 2015\PROJECTS\PIC10CASSIGNMENT1\PIC10CASSIGNMENT1\MAIN.CPP
^C:\USERS\ANDYWANG\DOCUMENTS\VISUAL STUDIO 2015\PROJECTS\PIC10CASSIGNMENT1\PIC10CASSIGNMENT1\CARD.CPP
/c /ZI /nologo /W3 /WX- /sdl /Od /Oy- /D _MBCS /Gm /EHsc /RTC1 /MDd /GS /fp:precise /Zc:wchar_t /Zc:forScope /Zc:inline /Fo"DEBUG\\" /Fd"DEBUG\VC140.PDB" /Gd /TP /analyze- C:\USERS\ANDYWANG\DOCUMENTS\VISUAL STUDIO 2015\PROJECTS\PIC10CASSIGNMENT1\PIC10CASSIGNMENT1\CARD.CPP
^C:\USERS\ANDYWANG\DOCUMENTS\VISUAL STUDIO 2015\PROJECTS\PIC10CASSIGNMENT1\PIC10CASSIGNMENT1\DECK.CPP
/c /ZI /nologo /W3 /WX- /sdl /Od /Oy- /D _MBCS /Gm /EHsc /RTC1 /MDd /GS /fp:precise /Zc:wchar_t /Zc:forScope /Zc:inline /Fo"DEBUG\\" /Fd"DEBUG\VC140.PDB" /Gd /TP /analyze- C:\USERS\ANDYWANG\DOCUMENTS\VISUAL STUDIO 2015\PROJECTS\PIC10CASSIGNMENT1\PIC10CASSIGNMENT1\DECK.CPP
^C:\USERS\ANDYWANG\DOCUMENTS\VISUAL STUDIO 2015\PROJECTS\PIC10CASSIGNMENT1\PIC10CASSIGNMENT1\CARDS.CPP
/c /ZI /nologo /W3 /WX- /sdl /Od /Oy- /D _MBCS /Gm /EHsc /RTC1 /MDd /GS /fp:precise /Zc:wchar_t /Zc:forScope /Zc:inline /Fo"DEBUG\\" /Fd"DEBUG\VC140.PDB" /Gd /TP /analyze- C:\USERS\ANDYWANG\DOCUMENTS\VISUAL STUDIO 2015\PROJECTS\PIC10CASSIGNMENT1\PIC10CASSIGNMENT1\CARDS.CPP
